…
There will be no need to install aditonional R add-ons. everything has already been installed on the cloud server.

Installed packages
------------------

To see all packages that are already installed:

``` r
library(tidyverse)
installed_packages <- installed.packages()
print(as_tibble(installed_packages))
```

    ## # A tibble: 185 × 16
    ##          Package                                                LibPath
    ##            <chr>                                                  <chr>
    ## 1        deSolve /home/FNT_ond_01/R/x86_64-redhat-linux-gnu-library/3.3
    ## 2          ggvis /home/FNT_ond_01/R/x86_64-redhat-linux-gnu-library/3.3
    ## 3        packrat /home/FNT_ond_01/R/x86_64-redhat-linux-gnu-library/3.3
    ## 4  scatterplot3d /home/FNT_ond_01/R/x86_64-redhat-linux-gnu-library/3.3
    ## 5    shinythemes /home/FNT_ond_01/R/x86_64-redhat-linux-gnu-library/3.3
    ## 6         teachR /home/FNT_ond_01/R/x86_64-redhat-linux-gnu-library/3.3
    ## 7  AnnotationDbi                                   /usr/lib64/R/library
    ## 8  AnnotationHub                                   /usr/lib64/R/library
    ## 9     assertthat                                   /usr/lib64/R/library
    ## 10     backports                                   /usr/lib64/R/library
    ## # ... with 175 more rows, and 14 more variables: Version <chr>,
    ## #   Priority <chr>, Depends <chr>, Imports <chr>, LinkingTo <chr>,
    ## #   Suggests <chr>, Enhances <chr>, License <chr>, License_is_FOSS <chr>,
    ## #   License_restricts_use <chr>, OS_type <chr>, MD5sum <chr>,
    ## #   NeedsCompilation <chr>, Built <chr>
…
Bimodal distributions
---------------------

There is one other distribution that I want to show. We will look at this distribution using one of R's build-in datasets: the eruptions of the Yellowstone Geyser "Old Faithful". Information on the dataset can be found running the command `?faithful` in the console.

``` r
 library(mixtools)
data(faithful)
faithful <- as_tibble(faithful)
faithful
```

    ## # A tibble: 272 × 2
    ##    eruptions waiting
    ## *      <dbl>   <dbl>
    ## 1      3.600      79
    ## 2      1.800      54
    ## 3      3.333      74
    ## 4      2.283      62
    ## 5      4.533      85
    ## 6      2.883      55
    ## 7      4.700      88
    ## 8      3.600      85
    ## 9      1.950      51
    ## 10     4.350      85
    ## # ... with 262 more rows
…
Build in datasets in R
----------------------

For this exercise we will use the "mpg" (miles per gallon) dataset, available in R.

To get info on the dataset: `?mpg`

To load the dataset:

``` r
library(tidyverse)
mpg
```

    ## # A tibble: 234 × 11
    ##    manufacturer      model displ  year   cyl      trans   drv   cty   hwy
    ##           <chr>      <chr> <dbl> <int> <int>      <chr> <chr> <int> <int>
    ## 1          audi         a4   1.8  1999     4   auto(l5)     f    18    29
    ## 2          audi         a4   1.8  1999     4 manual(m5)     f    21    29
    ## 3          audi         a4   2.0  2008     4 manual(m6)     f    20    31
    ## 4          audi         a4   2.0  2008     4   auto(av)     f    21    30
    ## 5          audi         a4   2.8  1999     6   auto(l5)     f    16    26
    ## 6          audi         a4   2.8  1999     6 manual(m5)     f    18    26
    ## 7          audi         a4   3.1  2008     6   auto(av)     f    18    27
    ## 8          audi a4 quattro   1.8  1999     4 manual(m5)     4    18    26
    ## 9          audi a4 quattro   1.8  1999     4   auto(l5)     4    16    25
    ## 10         audi a4 quattro   2.0  2008     4 manual(m6)     4    20    28
    ## # ... with 224 more rows, and 2 more variables: fl <chr>, class <chr>
…
